{
  "project_info": {
    "project_number": "42068619662",
    "firebase_url": "https://toursbooking-4df34.firebaseio.com",
    "project_id": "toursbooking-4df34",
    "storage_bucket": "toursbooking-4df34.appspot.com"
  },
  "client": [
    {
      "client_info": {
        "mobilesdk_app_id": "1:42068619662:android:092188ad09d142c4",
        "android_client_info": {
          "package_name": "com.std.toursbooking"
        }
      },
      "oauth_client": [
        {
          "client_id": "42068619662-v54fnp7snb3q6tls5gsech8us29uvika.apps.googleusercontent.com",
          "client_type": 1,
          "android_info": {
            "package_name": "com.std.toursbooking",
            "certificate_hash": "807f83d41a201e3a0e5c62f2cf1995c7d687e635"
          }
        },
        {
          "client_id": "42068619662-pp2d41lulghp6rnksi1oh0q0bq67ddd6.apps.googleusercontent.com",
          "client_type": 3
        }
      ],
      "api_key": [
        {
          "current_key": "AIzaSyCXIgGSw-OS-rB_cfzMFUZv9wQN7uZgwXw"
        }
      ],
      "services": {
        "analytics_service": {
          "status": 1
        },
        "appinvite_service": {
          "status": 2,
          "other_platform_oauth_client": [
            {
              "client_id": "42068619662-pp2d41lulghp6rnksi1oh0q0bq67ddd6.apps.googleusercontent.com",
              "client_type": 3
            }
          ]
        },
        "ads_service": {
          "status": 2
        }
      }
    }
  ],
  "configuration_version": "1"
}